á=&#xe1;
é=&#xe9;
í=&#xed;
ý=&#xfd
ž=&#382;
ř=&#345;
č=&#269;
š=&#353;
ě=&#283;
ů=&#367;
ú=&#xfa;
ň=&#328;
ó=&#243;
Ó=&#211;
Á=&#xc1;
Í=&#xcd;
É=&#xc9;
Ý=&#221;
Ž=&#381;
Ř=&#344;
Č=&#268;
Š=&#352;
Ě=&#282;
Ů=&#366;
Ú=&#218;
Ň=&#327;
\n=<br />\n

:,$s/I ot\./<br \/>(Ctrl V + Enter)I ot\./g

http://graphemica.com/